<svg width="28" height="24" viewBox="0 0 28 24" fill="none" xmlns="http://www.w3.org/2000/svg">
<g clip-path="url(#clip0_674_4)">
<path d="M7.184 0H27.65V5.219H7.184V0ZM7.184 9.39H27.65V14.609H7.184V9.39ZM7.184 18.781H27.65V24H7.184V18.781ZM0 0H5.219V5.219H0V0ZM0 9.39H5.219V14.609H0V9.39ZM0 18.781H5.219V24H0V18.781Z" fill="black"/>
</g>
<defs>
<clipPath id="clip0_674_4">
<rect width="28" height="24" fill="white"/>
</clipPath>
</defs>
</svg>
